{
  "profiles": {
    "Taxion.BE.Api.IntegrationTests": {
      "commandName": "Project",
      "launchBrowser": true,
      "environmentVariables": {
        "ASPNETCORE_ENVIRONMENT": "Development"
      },
      "applicationUrl": "https://localhost:5623;http://localhost:5624"
    }
  }
}